…
```r
# ALl remains the same: 23 obs, 37 vars
```

# Step 4: Data reshape (Wide -> Long)
* Using `gather` function to consolidate questions into one column. 

```r
data.long <- gather(data.wide_2, question, response, "Q15 - Content provided matched the training description.":"What changes would you suggest to the trainer?", factor_key = T)

data.long # Check the data
```

```
## # A tibble: 437 x 20
##    `Start Date` `End Date` `Response Type` `IP Address` Progress
##    <chr>        <chr>      <chr>           <chr>        <chr>   
##  1 2020-11-13 … 2020-11-1… IP Address      24.113.190.… 100     
##  2 2020-11-13 … 2020-11-1… IP Address      71.236.249.… 100     
##  3 2020-11-13 … 2020-11-1… IP Address      204.195.114… 100     
##  4 2020-11-13 … 2020-11-1… IP Address      96.95.131.1… 100     
##  5 2020-11-13 … 2020-11-1… IP Address      69.55.221.1… 100     
##  6 2020-11-13 … 2020-11-1… IP Address      63.135.62.1… 100     
##  7 2020-11-13 … 2020-11-1… IP Address      169.204.239… 100     
##  8 2020-11-13 … 2020-11-1… IP Address      24.16.3.54   100     
##  9 2020-11-13 … 2020-11-1… IP Address      209.181.41.… 100     
## 10 2020-11-13 … 2020-11-1… IP Address      97.90.70.194 100     
## # … with 427 more rows, and 15 more variables: `Duration (in seconds)` <chr>,
## #   Finished <chr>, `Recorded Date` <chr>, `Response ID` <chr>, `Recipient Last
## #   Name` <chr>, `Recipient First Name` <chr>, `Recipient Email` <chr>,
## #   `External Data Reference` <chr>, `Location Latitude` <chr>, `Location
## #   Longitude` <chr>, `Distribution Channel` <chr>, `User Language` <chr>,
## #   `Which training did you participate in?` <chr>, question <fct>,
## #   response <chr>
```
…
