…
# Step 5: Data reshape (Wide -> Long)
* Using `gather` function to consolidate questions into one column. 

```r
data.long <- gather(data.wide2, question, response, "Please mark only one response per line. - Content provided matched the training description.":"For future training, what topic(s) are you looking for (Select your top three choices) - Child & Youth Development Competency Areas:", factor_key = T)

data.long # Check the data
```

```
## # A tibble: 1,596 x 5
##    Finished `Recorded Date` `Which training did ~ question             response 
##    <lgl>    <chr>           <chr>                 <fct>                <chr>    
##  1 TRUE     4/1/20 17:17    <NA>                  Please mark only on~ Strongly~
##  2 TRUE     4/23/20 17:33   <NA>                  Please mark only on~ <NA>     
##  3 TRUE     5/7/20 14:02    Coach Framework Trai~ Please mark only on~ Strongly~
##  4 TRUE     5/7/20 14:04    Coach Framework Trai~ Please mark only on~ Strongly~
##  5 TRUE     5/7/20 14:05    Coach Framework Trai~ Please mark only on~ Strongly~
##  6 TRUE     5/7/20 14:07    Coach Framework Trai~ Please mark only on~ Strongly~
##  7 TRUE     5/7/20 14:09    Coach Framework Trai~ Please mark only on~ Agree    
##  8 TRUE     5/7/20 14:09    Coach Framework Trai~ Please mark only on~ Strongly~
##  9 TRUE     5/7/20 14:09    Coach Framework Trai~ Please mark only on~ Agree    
## 10 TRUE     5/7/20 14:10    Coach Framework Trai~ Please mark only on~ Strongly~
## # ... with 1,586 more rows
```
…
